{
  "tools": [
    {
      "name": "androguard",
      "source": "https://github.com/androguard/androguard",
      "description": "Tool for reverse engineering and malware analysis of Android applications",
      "language": "Python",
      "price": "Free",
      "online": "False"
    },
    {
      "name": "angr",
      "source": "https://github.com/angr/angr",
      "description": "Platform-agnostic binary analysis framework",
      "language": "Python",
      "price": "Free",
      "online": "False"
    },
    {
      "name": "ANY RUN",
      "website": "https://any.run/",
      "description": "Online virtual machine for malware hunting, sandbox with interactive access, real-time data-flow",
      "price": "Free",
      "online": "True"
    },
    {
      "name": "Apk2Gold",
      "source": "https://github.com/lxdvs/apk2gold",
      "description": "Android decompiler (wrapper for apktool, dex2jar, and jd-gui)",
      "language": "Shell",
      "price": "Free",
      "online": "False"
    },
    {
      "name": "Apktool",
      "website": "https://ibotpeaches.github.io/Apktool/",
      "source": "https://github.com/iBotPeaches/Apktool",
      "description": "Android disassembler and rebuilder",
      "language": "Java",
      "price": "Free",
      "online": "False"
    },
    {
      "name": "arm_now",
      "source": "https://github.com/nongiach/arm_now",
      "description": "Tool that allows instant setup of virtual machines on various architectures for reverse, exploit, fuzzing and programming purpose",
      "language": "Python",
      "price": "Free",
      "online": "False"
    },
    {
      "name": "Barf",
      "source": "https://github.com/programa-stic/barf-project",
      "description": "Binary Analysis and Reverse engineering Framework",
      "language": "Python",
      "price": "Free",
      "online": "False"
    },
    {
      "name": "Binary Ninja",
      "website": "https://binary.ninja/",
      "description": "Crossplatform binary analysis framework",
      "language": "Python",
      "price": "Paid",
      "online": "False"
    },
    {
      "name": "binutils",
      "website": "https://www.gnu.org/software/binutils/binutils.html",
      "source": "http://sourceware.org/git/gitweb.cgi?p=binutils-gdb.git",
      "description": "GNU collection of binary tools",
      "language": "C",
      "price": "Free",
      "online": "False"
    },
    {
      "name": "binwalk",
      "source": "https://github.com/devttys0/binwalk",
      "description": "Analyze, reverse engineer and extract firmware images (and other files, also usefull for Digital Forensics)",
      "language": "Python",
      "price": "Free",
      "online": "False"
    },
    {
      "name": "boomerang",
      "source": "https://github.com/nemerle/boomerang",
      "description": "x86 binaries to C decompiler",
      "language": "Cplusplus",
      "price": "Free",
      "online": "False"
    },
    {
      "name": "ctf_import",
      "website": "http://van.prooyen.com/projects/#ctfimport",
      "source": "https://github.com/docileninja/ctf_import",
      "description": "Library to run basic functions from stripped binaries",
      "language": "C",
      "price": "Free",
      "online": "False"
    },
    {
      "name": "CFF Explorer",
      "website": "http://www.ntcore.com/exsuite.php",
      "description": "PE Editor",
      "price": "Free",
      "online": "False"
    },
    {
      "name": "Cutter",
      "source": "https://github.com/radareorg/cutter",
      "description": "Qt and C++ GUI for radare2",
      "language": "CPlusPlus",
      "price": "Free",
      "online": "False"
    },
    {
      "name": "Defuse online disassembler",
      "website": "https://defuse.ca/online-x86-assembler.htm",
      "description": "Online x86 (32/64 bits) assembler and disassembler",
      "price": "Free",
      "online": "True"
    },
    {
      "name": "Droidefense",
      "website": "http://droidefense.com/",
      "source": "https://github.com/droidefense/engine",
      "description": "Android apps/malware analysis/reversing tool",
      "language": "Java",
      "price": "Free",
      "online": "False"
    },
    {
      "name": "Flare",
      "website": "http://www.nowrap.de/flare.html",
      "description": "Processes SWF and extract scripts from it",
      "price": "Free",
      "online": "False"
    },
    {
      "name": "Flasm",
      "website": "http://www.nowrap.de/flasm.html",
      "source": "https://sourceforge.net/projects/flasm/",
      "description": "Disassembler tool for SWF bytecode",
      "price": "Free",
      "online": "False"
    },
    {
      "name": "Frida",
      "website": "https://www.frida.re/",
      "source": "https://github.com/frida/frida",
      "description": "Dynamic code instrumentation toolkit",
      "language": "C",
      "price": "Free",
      "online": "False"
    },
    {
      "name": "GDB",
      "website": "https://www.gnu.org/software/gdb/",
      "source": "http://sourceware.org/git/gitweb.cgi?p=binutils-gdb.git",
      "description": "GNU debugger",
      "language": "Cplusplus",
      "price": "Free",
      "online": "False"
    },
    {
      "name": "Hiew",
      "website": "http://www.hiew.ru/",
      "description": "x86_64 disassembler for multiple formats",
      "price": "Paid",
      "online": "False"
    },
    {
      "name": "Hopper",
      "website": "https://www.hopperapp.com/",
      "description": "Disassembler, decompiler and debugger",
      "price": "Paid",
      "online": "False"
    },
    {
      "name": "IDA Pro",
      "website": "https://www.hex-rays.com/products/ida/",
      "description": "Disassembler and debugger",
      "price": "Paid",
      "online": "False"
    },
    {
      "name": "ILSpy",
      "source": "https://github.com/icsharpcode/ILSpy",
      "description": ".NET assembly browser and decompiler to C#",
      "language": "CSharp",
      "price": "Free",
      "online": "False"
    },
    {
      "name": "ImmunityDbg",
      "website": "https://www.immunityinc.com/products/debugger/",
      "description": "Windows debugger with Python scripting support",
      "price": "Free",
      "online": "False"
    },
    {
      "name": "jadx",
      "source": "https://github.com/skylot/jadx",
      "description": "DEX to Java decompiler",
      "language": "Java",
      "price": "Free",
      "online": "False"
    },
    {
      "name": "Java Decompilers",
      "website": "http://www.javadecompilers.com/",
      "description": ".JAR and .Class to Java decompiler",
      "price": "Free",
      "online": "True"
    },
    {
      "name": "JD-GUI",
      "website": "http://jd.benow.ca/",
      "description": "GUI tool decompiling JAVA",
      "language": "Java",
      "price": "Free",
      "online": "False"
    },
    {
      "name": "JEB",
      "website": "https://www.pnfsoftware.com/jeb2/",
      "description": "Disassembler, decompiler and debugger",
      "price": "Paid",
      "online": "False"
    },
    {
      "name": "JPEXS Free Flash Decompiler",
      "source": "https://github.com/jindrapetrik/jpexs-decompiler",
      "description": "A.k.a ffdec, flash SWF decompiler",
      "language": "Java",
      "price": "Free",
      "online": "False"
    },
    {
      "name": "JSDetox",
      "website": "http://relentless-coding.org/projects/jsdetox/",
      "source": "https://github.com/svent/jsdetox",
      "description": "Javascript deobfustcator",
      "language": "Ruby",
      "price": "Free",
      "online": "False"
    },
    {
      "name": "Kemon",
      "source": "https://github.com/didi/kemon",
      "description": "macOS kernel pre and post callback-based framework",
      "language": "C",
      "price": "Free",
      "online": "False"
    },
    {
      "name": "Krakatau",
      "source": "https://github.com/Storyyeller/Krakatau",
      "description": "Java decompiler, assembler, and disassembler",
      "language": "Java",
      "price": "Free",
      "online": "False"
    },
    {
      "name": "ldd",
      "website": "https://linux.die.net/man/1/ldd",
      "description": "Tool that print shared library dependencies",
      "price": "Free",
      "online": "False"
    },
    {
      "name": "Metasm",
      "website": "http://metasm.cr0.org/",
      "source": "https://github.com/jjyg/metasm",
      "description": "Assembler, disassembler, compiler and debugger",
      "language": "Ruby",
      "price": "Free",
      "online": "False"
    },
    {
      "name": "Medusa",
      "source": "https://github.com/wisk/medusa",
      "description": "Interactive multi-architecture and multi-formats disassembler running on Windows and Linux",
      "language": "Cplusplus",
      "price": "Free",
      "online": "False"
    },
    {
      "name": "ODA",
      "website": "https://onlinedisassembler.com/odaweb/",
      "description": "Advanced multi-architecture online disassembler supporting a lot of architectures and object file formats",
      "price": "Free",
      "online": "True"
    },
    {
      "name": "OllyDbg",
      "website": "http://www.ollydbg.de/",
      "description": "Windows debugger",
      "price": "Free",
      "online": "False"
    },
    {
      "name": "PE Explorer Disassembler",
      "website": "http://www.heaventools.com/PE_Explorer_disassembler.htm",
      "description": "Windows disassembler",
      "price": "Paid",
      "online": "False"
    },
    {
      "name": "PE Insider",
      "website": "http://cerbero.io/peinsider/",
      "description": "PE viewer, closed source and windows only",
      "price": "Free",
      "online": "False"
    },
    {
      "name": "Plasma",
      "source": "https://github.com/plasma-disassembler/plasma",
      "description": "x86/ARM/MIPS interactive disassembler",
      "language": "Python",
      "price": "Free",
      "online": "False"
    },
    {
      "name": "Qira",
      "website": "http://qira.me/",
      "source": "https://github.com/BinaryAnalysisPlatform/qira",
      "description": "Timeless debugger (QIRA = QEMU Interactive Runtime Analyser)",
      "language": "C",
      "price": "Free",
      "online": "False"
    },
    {
      "name": "RABCDAsm",
      "website": "http://blog.thecybershadow.net/2010/05/05/announcing-rabcdasm/",
      "source": "https://github.com/CyberShadow/RABCDAsm",
      "description": "ActionScript disassembler",
      "language": "D",
      "price": "Free",
      "online": "False"
    },
    {
      "name": "radare2",
      "website": "http://www.radare.org/r/",
      "source": "https://github.com/radare/radare2",
      "description": "Crossplatform binary analysis framework, disassembler, decompiler and debugger, support collaborative analysis",
      "language": "C",
      "price": "Free",
      "online": "False"
    },
    {
      "name": "Relyze",
      "website": "https://www.relyze.com/overview.html",
      "description": "x86 and ARM graphical interactive disassembler with Ruby plugin framework",
      "price": "Paid",
      "online": "False"
    },
    {
      "name": "RetDec",
      "website": "https://retdec.com/",
      "source": "https://github.com/avast-tl/retdec",
      "description": "Multi file formats and architectures machine-code decompiler",
      "language": "Cplusplus",
      "price": "Free",
      "online": "False"
    },
    {
      "name": "sandsifter",
      "source": "https://github.com/xoreaxeaxeax/sandsifter",
      "description": "x86 processor fuzzer",
      "language": "Python",
      "price": "Free",
      "online": "False"
    },
    {
      "name": "Snowman",
      "website": "https://derevenets.com/",
      "source": "https://github.com/yegord/snowman",
      "description": "Native code to C/C++ decompiler, supporting x86, AMD64, and ARM architectures, exists as standalone app or as a plug-in",
      "language": "Cplusplus",
      "price": "Free",
      "online": "False"
    },
    {
      "name": "strace",
      "source": "https://sourceforge.net/projects/strace/",
      "description": "Debugger for Linux",
      "price": "Free",
      "online": "False"
    },
    {
      "name": "Swftools",
      "website": "http://www.swftools.org/",
      "source": "https://github.com/matthiaskramm/swftools",
      "description": "Collection of utilities to work with SWF files",
      "language": "C",
      "price": "Free",
      "online": "False"
    },
    {
      "name": "Triton",
      "website": "https://triton.quarkslab.com/",
      "source": "https://github.com/JonathanSalwan/Triton/",
      "description": "Dynamic binary analysis framework, automate reverse engineering",
      "language": "Cplusplus",
      "price": "Free",
      "online": "False"
    },
    {
      "name": "UglifyJS2",
      "website": "https://www.npmjs.com/package/uglify-js",
      "source": "https://github.com/mishoo/UglifyJS2",
      "description": "JavaScript obfuscator or beautifier toolkit",
      "language": "JavaScript",
      "price": "Free",
      "online": "False"
    },
    {
      "name": "uncompyle",
      "source": "https://github.com/gstarnberger/uncompyle",
      "description": "Python 2.7 binaries (.pyc) decompiler",
      "language": "Python",
      "price": "Free",
      "online": "False"
    },
    {
      "name": "uncompyle6",
      "source": "https://github.com/rocky/python-uncompyle6",
      "description": "Python 1.5, 2.1 to 2.7, 3.1 to 3.6 binaries (.pyc) decompiler",
      "language": "Python",
      "price": "Free",
      "online": "False"
    },
    {
      "name": "Vais",
      "source": "https://github.com/hahwul/vais",
      "description": "SWF vulnerability and information scanner",
      "language": "Ruby",
      "price": "Free",
      "online": "False"
    },
    {
      "name": "WinDbg",
      "website": "http://www.windbg.org/",
      "description": "Windows debugger",
      "price": "Free",
      "online": "False"
    },
    {
      "name": "x64dbg",
      "website": "https://x64dbg.com/",
      "source": "https://github.com/x64dbg/x64dbg",
      "description": "Windows debugger",
      "language": "Cplusplus",
      "price": "Free",
      "online": "False"
    },
    {
      "name": "XenoScan",
      "source": "https://github.com/nickcano/XenoScan",
      "description": "Processes memory scanner",
      "language": "Cplusplus",
      "price": "Free",
      "online": "False"
    },
    {
      "name": "Xori",
      "website": "https://www.endgame.com/tools",
      "source": "https://github.com/endgameinc/xori",
      "description": "Disassembly and static analysis library that provides triage analysis data",
      "language": "Rust",
      "price": "Free",
      "online": "False"
    },
    {
      "name": "xxxswf",
      "source": "https://bitbucket.org/Alexander_Hanel/xxxswf/src",
      "description": "Small script for carving, scanning, compressing, decompressing and analyzing SWF files",
      "language": "Python",
      "price": "Free",
      "online": "False"
    }
  ]
}
